\relax 
\providecommand\hyper@newdestlabel[2]{}
\providecommand\HyperFirstAtBeginDocument{\AtBeginDocument}
\HyperFirstAtBeginDocument{\ifx\hyper@anchor\@undefined
\global\let\oldcontentsline\contentsline
\gdef\contentsline#1#2#3#4{\oldcontentsline{#1}{#2}{#3}}
\global\let\oldnewlabel\newlabel
\gdef\newlabel#1#2{\newlabelxx{#1}#2}
\gdef\newlabelxx#1#2#3#4#5#6{\oldnewlabel{#1}{{#2}{#3}}}
\AtEndDocument{\ifx\hyper@anchor\@undefined
\let\contentsline\oldcontentsline
\let\newlabel\oldnewlabel
\fi}
\fi}
\global\let\hyper@last\relax 
\gdef\HyperFirstAtBeginDocument#1{#1}
\providecommand\HyField@AuxAddToFields[1]{}
\providecommand\HyField@AuxAddToCoFields[2]{}
\babel@aux{italian}{}
\babel@aux{italian}{}
\@writefile{toc}{\contentsline {chapter}{\numberline {1}Analisi}{2}{chapter.1}}
\@writefile{lof}{\addvspace {10\p@ }}
\@writefile{lot}{\addvspace {10\p@ }}
\@writefile{toc}{\contentsline {section}{\numberline {1.1}Requisiti}{2}{section.1.1}}
\@writefile{toc}{\contentsline {section}{\numberline {1.2}Analisi e modello del dominio}{3}{section.1.2}}
\@writefile{lof}{\contentsline {figure}{\numberline {1.1}{\ignorespaces Schema UML dell'analisi del problema, con rappresentate le entit\IeC {\`a} principali ed i rapporti fra loro}}{4}{figure.1.1}}
\newlabel{img:analysis}{{1.1}{4}{Schema UML dell'analisi del problema, con rappresentate le entità principali ed i rapporti fra loro}{figure.1.1}{}}
\newlabel{img:analysis@cref}{{[figure][1][1]1.1}{[1][3][]4}}
\@writefile{toc}{\contentsline {chapter}{\numberline {2}Design}{5}{chapter.2}}
\@writefile{lof}{\addvspace {10\p@ }}
\@writefile{lot}{\addvspace {10\p@ }}
\@writefile{toc}{\contentsline {section}{\numberline {2.1}Architettura}{5}{section.2.1}}
\@writefile{lof}{\contentsline {figure}{\numberline {2.1}{\ignorespaces Schema UML architetturale di Natural Selection Simulator.}}{6}{figure.2.1}}
\newlabel{img:arch}{{2.1}{6}{Schema UML architetturale di Natural Selection Simulator}{figure.2.1}{}}
\newlabel{img:arch@cref}{{[figure][1][2]2.1}{[1][5][]6}}
\@writefile{toc}{\contentsline {section}{\numberline {2.2}Design dettagliato}{6}{section.2.2}}
\@writefile{lof}{\contentsline {figure}{\numberline {2.2}{\ignorespaces Schema UML gestione Entity.}}{7}{figure.2.2}}
\newlabel{img:Entity}{{2.2}{7}{Schema UML gestione Entity}{figure.2.2}{}}
\newlabel{img:Entity@cref}{{[figure][2][2]2.2}{[1][6][]7}}
\@writefile{lof}{\contentsline {figure}{\numberline {2.3}{\ignorespaces Schema UML Builder per un Organismo.}}{8}{figure.2.3}}
\newlabel{img:OrganismBuilder}{{2.3}{8}{Schema UML Builder per un Organismo}{figure.2.3}{}}
\newlabel{img:OrganismBuilder@cref}{{[figure][3][2]2.3}{[1][7][]8}}
\@writefile{lof}{\contentsline {figure}{\numberline {2.4}{\ignorespaces Schema UML pattern Command per gestire le Actions.}}{9}{figure.2.4}}
\newlabel{img:Command}{{2.4}{9}{Schema UML pattern Command per gestire le Actions}{figure.2.4}{}}
\newlabel{img:Command@cref}{{[figure][4][2]2.4}{[1][8][]9}}
\@writefile{lof}{\contentsline {figure}{\numberline {2.5}{\ignorespaces Schema UML pattern Strategy per la gestione dei compiti assegnati ad ogni organismo.}}{10}{figure.2.5}}
\newlabel{img:Strategy}{{2.5}{10}{Schema UML pattern Strategy per la gestione dei compiti assegnati ad ogni organismo}{figure.2.5}{}}
\newlabel{img:Strategy@cref}{{[figure][5][2]2.5}{[1][9][]10}}
\@writefile{lof}{\contentsline {figure}{\numberline {2.6}{\ignorespaces Rappresentazione UML del pattern Strategy per la strategia di consumo cibo dei Trait.}}{11}{figure.2.6}}
\newlabel{img:strategyTrait}{{2.6}{11}{Rappresentazione UML del pattern Strategy per la strategia di consumo cibo dei Trait}{figure.2.6}{}}
\newlabel{img:strategyTrait@cref}{{[figure][6][2]2.6}{[1][10][]11}}
\@writefile{lof}{\contentsline {figure}{\numberline {2.7}{\ignorespaces Schema UML gestione Trait}}{12}{figure.2.7}}
\newlabel{img:trait}{{2.7}{12}{Schema UML gestione Trait}{figure.2.7}{}}
\newlabel{img:trait@cref}{{[figure][7][2]2.7}{[1][11][]12}}
\newlabel{img:traitType}{{2.2}{13}{Caratteristiche}{figure.2.7}{}}
\newlabel{img:traitType@cref}{{[section][2][2]2.2}{[1][12][]13}}
\newlabel{img:mutatedFactory}{{2.2}{14}{Mutazioni}{section*.11}{}}
\newlabel{img:mutatedFactory@cref}{{[section][2][2]2.2}{[1][14][]14}}
\newlabel{img:settings}{{2.2}{15}{Impostazioni}{section*.12}{}}
\newlabel{img:settings@cref}{{[section][2][2]2.2}{[1][14][]15}}
\newlabel{img:settingsObserver}{{2.2}{16}{Impostazioni}{section*.12}{}}
\newlabel{img:settingsObserver@cref}{{[section][2][2]2.2}{[1][15][]16}}
\newlabel{img:setupObserver}{{2.2}{17}{Setup Iniziale}{section*.13}{}}
\newlabel{img:setupObserver@cref}{{[section][2][2]2.2}{[1][16][]17}}
\newlabel{img:sceneController}{{2.2}{18}{Gestione View}{section*.14}{}}
\newlabel{img:sceneController@cref}{{[section][2][2]2.2}{[1][17][]18}}
\newlabel{img:scene}{{2.2}{19}{Gestione View}{section*.14}{}}
\newlabel{img:scene@cref}{{[section][2][2]2.2}{[1][18][]19}}
\@writefile{lof}{\contentsline {figure}{\numberline {2.8}{\ignorespaces Schema UML gestione Environment.}}{20}{figure.2.8}}
\newlabel{img:Environment}{{2.8}{20}{Schema UML gestione Environment}{figure.2.8}{}}
\newlabel{img:Environment@cref}{{[figure][8][2]2.8}{[1][19][]20}}
\@writefile{lof}{\contentsline {figure}{\numberline {2.9}{\ignorespaces Schema UML Factory per l'Ambiente.}}{21}{figure.2.9}}
\newlabel{img:EnvironmentFactory}{{2.9}{21}{Schema UML Factory per l'Ambiente}{figure.2.9}{}}
\newlabel{img:EnvironmentFactory@cref}{{[figure][9][2]2.9}{[1][20][]21}}
\@writefile{lof}{\contentsline {figure}{\numberline {2.10}{\ignorespaces Schema UML gestione ciclo giorno/notte.}}{22}{figure.2.10}}
\newlabel{img:DayCicle}{{2.10}{22}{Schema UML gestione ciclo giorno/notte}{figure.2.10}{}}
\newlabel{img:DayCicle@cref}{{[figure][10][2]2.10}{[1][21][]22}}
\@writefile{lof}{\contentsline {figure}{\numberline {2.11}{\ignorespaces Schema UML loop di simulazione.}}{23}{figure.2.11}}
\newlabel{img:SimulationLoop}{{2.11}{23}{Schema UML loop di simulazione}{figure.2.11}{}}
\newlabel{img:SimulationLoop@cref}{{[figure][11][2]2.11}{[1][22][]23}}
\@writefile{toc}{\contentsline {chapter}{\numberline {3}Sviluppo}{24}{chapter.3}}
\@writefile{lof}{\addvspace {10\p@ }}
\@writefile{lot}{\addvspace {10\p@ }}
\@writefile{toc}{\contentsline {section}{\numberline {3.1}Testing automatizzato}{24}{section.3.1}}
\@writefile{toc}{\contentsline {section}{\numberline {3.2}Metodologia di lavoro}{25}{section.3.2}}
\@writefile{toc}{\contentsline {section}{\numberline {3.3}Note di sviluppo}{26}{section.3.3}}
\@writefile{toc}{\contentsline {chapter}{\numberline {4}Commenti finali}{29}{chapter.4}}
\@writefile{lof}{\addvspace {10\p@ }}
\@writefile{lot}{\addvspace {10\p@ }}
\@writefile{toc}{\contentsline {section}{\numberline {4.1}Autovalutazione e lavori futuri}{29}{section.4.1}}
\@writefile{toc}{\contentsline {section}{\numberline {4.2}Difficolt\IeC {\`a} incontrate e commenti per i docenti}{31}{section.4.2}}
\@writefile{toc}{\contentsline {chapter}{\numberline {A}Guida utente}{33}{appendix.Alph1}}
\@writefile{lof}{\addvspace {10\p@ }}
\@writefile{lot}{\addvspace {10\p@ }}
\@writefile{lof}{\contentsline {figure}{\numberline {A.1}{\ignorespaces Schermata Iniziale del simulatore}}{33}{figure.Alph1.1}}
\newlabel{img:schermataIniziale}{{A.1}{33}{Schermata Iniziale del simulatore}{figure.Alph1.1}{}}
\newlabel{img:schermataIniziale@cref}{{[figure][1][2147483647,1]A.1}{[1][33][]33}}
\@writefile{lof}{\contentsline {figure}{\numberline {A.2}{\ignorespaces Schermata Simulazione}}{34}{figure.Alph1.2}}
\newlabel{img:schermataSimulazione}{{A.2}{34}{Schermata Simulazione}{figure.Alph1.2}{}}
\newlabel{img:schermataSimulazione@cref}{{[figure][2][2147483647,1]A.2}{[1][34][]34}}
\bibstyle{abbrv}
\bibdata{template}
\@writefile{lof}{\contentsline {figure}{\numberline {A.3}{\ignorespaces Schermata Settings}}{35}{figure.Alph1.3}}
\newlabel{img:schermataSettings}{{A.3}{35}{Schermata Settings}{figure.Alph1.3}{}}
\newlabel{img:schermataSettings@cref}{{[figure][3][2147483647,1]A.3}{[1][35][]35}}
